…
There aren’t any obvious trends, but our 63 year-old male study was
slightly more active on Monday and Friday than Tuesday-Thursday and
Saturday. He was least active on Saturday, especially for week 4 and 5.

\####Make a single-panel plot that shows the 24-hour activity time
courses for each day

``` r
accel_df %>%
  mutate(minute_of_day = as.numeric(minute_of_day))
```

    ## # A tibble: 50,400 × 6
    ##     week day_id day    weekend_weekday minute_of_day activity_count
    ##    <dbl>  <dbl> <ord>  <fct>                   <dbl>          <dbl>
    ##  1     1      1 Friday weekend                    NA           88.4
    ##  2     1      1 Friday weekend                    NA           82.2
    ##  3     1      1 Friday weekend                    NA           64.4
    ##  4     1      1 Friday weekend                    NA           70.0
    ##  5     1      1 Friday weekend                    NA           75.0
    ##  6     1      1 Friday weekend                    NA           66.3
    ##  7     1      1 Friday weekend                    NA           53.8
    ##  8     1      1 Friday weekend                    NA           47.8
    ##  9     1      1 Friday weekend                    NA           55.5
    ## 10     1      1 Friday weekend                    NA           43.0
    ## # … with 50,390 more rows
…
